…
## Problem 1

The Washington Post has gathered data on homicides in 50 large U.S.
cities and made the data available through a GitHub repository here. You
can read their accompanying article here.

``` r
homicide_df = read_csv("./data/homicide-data.csv") |> 
  janitor::clean_names()

homicide_df
```

    ## # A tibble: 52,179 × 12
    ##    uid        reported_date victim_last  victim_first victim_race victim_age
    ##    <chr>              <dbl> <chr>        <chr>        <chr>       <chr>     
    ##  1 Alb-000001      20100504 GARCIA       JUAN         Hispanic    78        
    ##  2 Alb-000002      20100216 MONTOYA      CAMERON      Hispanic    17        
    ##  3 Alb-000003      20100601 SATTERFIELD  VIVIANA      White       15        
    ##  4 Alb-000004      20100101 MENDIOLA     CARLOS       Hispanic    32        
    ##  5 Alb-000005      20100102 MULA         VIVIAN       White       72        
    ##  6 Alb-000006      20100126 BOOK         GERALDINE    White       91        
    ##  7 Alb-000007      20100127 MALDONADO    DAVID        Hispanic    52        
    ##  8 Alb-000008      20100127 MALDONADO    CONNIE       Hispanic    52        
    ##  9 Alb-000009      20100130 MARTIN-LEYVA GUSTAVO      White       56        
    ## 10 Alb-000010      20100210 HERRERA      ISRAEL       Hispanic    43        
    ## # ℹ 52,169 more rows
    ## # ℹ 6 more variables: victim_sex <chr>, city <chr>, state <chr>, lat <dbl>,
    ## #   lon <dbl>, disposition <chr>
…
